waves.vcd
$date
     Jun 26, 2019       11:29:30
$end

$version
 SystemC 2.3.2-Accellera --- May 13 2019 10:46:16
$end

$timescale
     1 ps
$end

$scope module SystemC $end
$var wire    1  aaaaa  Clock       $end
$var wire    1  aaaab  Input       $end
$var wire    1  aaaac  Out1       $end
$var wire    1  aaaad  Out2       $end
$upscope $end
$enddefinitions  $end

$comment
All initial values are dumped below at time 0 sec = 0 timescale units.
$end

$dumpvars
0aaaaa
1aaaab
0aaaac
0aaaad
$end

#10000
1aaaaa
1aaaac
1aaaad

#15000
0aaaaa
0aaaac
0aaaad

#20000
1aaaaa
0aaaab
1aaaad

#25000
0aaaaa
1aaaac
0aaaad

#30000
1aaaaa
1aaaab
1aaaad

#35000
0aaaaa
0aaaac
0aaaad

#40000
1aaaaa
0aaaab
1aaaad

#45000
0aaaaa
1aaaac
0aaaad

#50000
1aaaaa
0aaaac

